<svg width="70" height="25" viewBox="0 0 70 25" fill="none" xmlns="http://www.w3.org/2000/svg">
<path d="M0 21.6101V11.0753H2.12607V19.8133H7.69607V21.6101H0Z" fill="#335EEA"/>
<path d="M12.203 21.7574C11.6021 21.7655 11.0056 21.6581 10.4482 21.4416C9.9515 21.2466 9.50106 20.9563 9.12431 20.5883C8.74756 20.2203 8.45236 19.7823 8.25666 19.3009C8.05231 18.8152 7.95081 18.295 7.95813 17.7709C7.95244 17.2362 8.05124 16.7052 8.24938 16.2058C8.44106 15.7264 8.72796 15.2878 9.09398 14.9144C9.47509 14.5334 9.93364 14.2324 10.441 14.03C11.0032 13.8039 11.6085 13.6939 12.2175 13.7072C12.8216 13.6981 13.4211 13.8079 13.9796 14.03C14.4779 14.2337 14.9286 14.5321 15.3047 14.9074C15.67 15.2733 15.9526 15.7082 16.1347 16.1847C16.3235 16.6694 16.4197 17.183 16.4187 17.7007C16.4187 17.8271 16.4187 17.9534 16.4114 18.0727C16.4101 18.1719 16.3979 18.2707 16.375 18.3675H10.1424C10.1649 18.6508 10.244 18.9273 10.3754 19.1816C10.6105 19.6398 11.0161 19.9956 11.5113 20.1783C11.7579 20.2678 12.0195 20.3129 12.2831 20.3116C12.6904 20.312 13.0911 20.213 13.448 20.0239C13.7826 19.8627 14.0461 19.5913 14.1907 19.2588L15.96 19.7361C15.6438 20.3475 15.1474 20.8554 14.5329 21.1959C13.8849 21.5679 13.1058 21.7574 12.203 21.7574ZM14.2999 17.0691C14.249 16.4865 14.0232 16.0163 13.6301 15.6654C13.3335 15.4112 12.9701 15.2407 12.5796 15.1726C12.1891 15.1045 11.7868 15.1414 11.4166 15.2793C10.9311 15.4644 10.5395 15.8244 10.3245 16.283C10.2034 16.5299 10.1318 16.7966 10.1133 17.0691H14.2999Z" fill="#335EEA"/>
<path d="M19.8846 21.7574C19.5124 21.7567 19.1431 21.695 18.7924 21.5749C18.4689 21.4583 18.1721 21.2818 17.9187 21.0556C17.6715 20.8384 17.4754 20.5727 17.3435 20.2765C17.2039 19.9664 17.132 19.632 17.1323 19.2939C17.1329 18.9401 17.2202 18.5914 17.3872 18.2762C17.5568 17.9635 17.7984 17.6922 18.0934 17.4831C18.4215 17.2531 18.7886 17.0797 19.1783 16.9708C19.6274 16.8439 20.0937 16.7824 20.5617 16.7883C20.9158 16.787 21.2692 16.8176 21.6175 16.8796C21.9314 16.9301 22.2389 17.0124 22.5349 17.1252V16.683C22.5349 16.1707 22.382 15.7706 22.0834 15.4969C21.7849 15.2232 21.3335 15.0828 20.7364 15.0828C20.3059 15.0833 19.8791 15.1594 19.4768 15.3074C19.0308 15.4743 18.6077 15.6936 18.2172 15.9601L17.5838 14.6968C18.5741 14.0486 19.7433 13.7014 20.9403 13.7002C22.098 13.7002 23.0009 13.9739 23.6416 14.5213C24.2823 15.0688 24.6027 15.8619 24.6027 16.9006V19.322C24.6027 19.5326 24.6391 19.6799 24.7192 19.7642C24.7688 19.812 24.8279 19.8497 24.8929 19.875C24.958 19.9003 25.0277 19.9128 25.0978 19.9116V21.603C24.7986 21.6661 24.4938 21.7014 24.1877 21.7083C23.8018 21.7083 23.496 21.6241 23.2848 21.4556C23.0744 21.2865 22.9348 21.0496 22.8916 20.7889L22.848 20.3607C22.5045 20.804 22.0549 21.1604 21.5374 21.3995C21.0207 21.6353 20.4562 21.7576 19.8846 21.7574ZM20.4671 20.3046C20.8057 20.3068 21.1416 20.2473 21.4573 20.1291C21.7376 20.0313 21.9879 19.8672 22.1854 19.6519C22.4111 19.4834 22.5203 19.2939 22.5203 19.0904V18.199C22.2587 18.1094 21.9911 18.0367 21.7194 17.9815C21.446 17.9288 21.1681 17.9006 20.8894 17.8972C20.3578 17.8972 19.921 18.0166 19.5788 18.2482C19.2366 18.4798 19.0691 18.7746 19.0691 19.1325C19.0657 19.2929 19.1 19.452 19.1693 19.5978C19.2386 19.7436 19.3413 19.8725 19.4695 19.9747C19.7519 20.1936 20.1048 20.3103 20.4671 20.3046Z" fill="#335EEA"/>
<path d="M29.561 21.7574C28.8856 21.7571 28.2146 21.6529 27.5733 21.4486C26.9643 21.2601 26.4 20.9572 25.9132 20.5573L26.685 19.308C27.1315 19.6185 27.6157 19.8754 28.1266 20.073C28.5693 20.2426 29.041 20.3307 29.5173 20.3327C29.9251 20.3327 30.2527 20.2555 30.4857 20.1081C30.5978 20.0409 30.6897 19.9466 30.7523 19.8345C30.8149 19.7225 30.846 19.5966 30.8425 19.4694C30.8425 19.1887 30.7041 18.9921 30.4275 18.8588C30.1508 18.7254 29.6994 18.5851 29.0732 18.4166C28.549 18.2763 28.1048 18.1429 27.7335 18.0166C27.4158 17.9114 27.1145 17.765 26.8379 17.5814C26.6281 17.4357 26.4582 17.243 26.3428 17.0199C26.2336 16.779 26.1814 16.5177 26.1899 16.2549C26.1816 15.8838 26.2639 15.516 26.4302 15.1811C26.588 14.8671 26.8169 14.5913 27.1 14.374C27.3993 14.145 27.74 13.9713 28.1048 13.8616C28.5102 13.7406 28.9328 13.6814 29.3572 13.6861C29.9354 13.6825 30.5105 13.7678 31.0609 13.9388C31.5986 14.1121 32.0941 14.3891 32.5171 14.753L31.6871 15.9531C31.3241 15.6807 30.9219 15.4608 30.493 15.3004C30.1282 15.1645 29.7409 15.0932 29.3499 15.0898C29.0415 15.0785 28.736 15.1515 28.4689 15.3004C28.2359 15.4408 28.1121 15.6654 28.1121 15.9672C28.1045 16.0877 28.135 16.2076 28.1995 16.3111C28.2669 16.4112 28.3596 16.4933 28.4689 16.5497C28.6247 16.6318 28.788 16.6999 28.9567 16.7532C29.1533 16.8164 29.4081 16.8866 29.6994 16.9568C30.2527 17.0971 30.726 17.2375 31.1192 17.3709C31.464 17.4844 31.7901 17.6452 32.0875 17.8481C32.3202 18.0088 32.5099 18.2205 32.6409 18.4658C32.7642 18.7278 32.8239 19.0134 32.8157 19.301C32.8157 20.066 32.5244 20.6626 31.9419 21.1047C31.3594 21.5469 30.5731 21.7574 29.561 21.7574Z" fill="#335EEA"/>
<path d="M34.1627 12.7527V10.7805H36.2233V12.7527H34.1627ZM34.1627 21.61V13.8335H36.2233V21.61H34.1627Z" fill="#335EEA"/>
<path d="M42.9219 21.203C42.5903 21.343 42.2498 21.4626 41.9025 21.5609C41.4946 21.6819 41.0696 21.7411 40.6429 21.7364C40.3698 21.7364 40.098 21.701 39.8347 21.6311C39.5907 21.5673 39.3644 21.4523 39.1721 21.2942C38.9754 21.132 38.8209 20.9277 38.7207 20.6976C38.6001 20.4177 38.543 20.1162 38.5532 19.8133V15.3495H37.4974V13.8195H38.5605V11.2998H40.621V13.8195H42.303V15.3495H40.6137V19.1606C40.6137 19.4343 40.6866 19.6308 40.8395 19.7501C40.9945 19.8679 41.1884 19.9277 41.3855 19.9186C41.6014 19.919 41.8157 19.8834 42.019 19.8133C42.2229 19.7431 42.3903 19.687 42.5141 19.6378L42.9219 21.203Z" fill="#335EEA"/>
<path d="M44.1668 23.119C44.334 23.1672 44.5042 23.2047 44.6765 23.2313C44.8137 23.2535 44.9524 23.2652 45.0915 23.2664C45.2189 23.2676 45.3453 23.2437 45.4628 23.1962C45.5883 23.1395 45.6944 23.0494 45.7686 22.9365C45.8794 22.7757 45.9721 22.6039 46.0453 22.4242C46.14 22.2066 46.2346 21.9329 46.3366 21.61L43.1475 13.8335H45.2735L47.4578 19.8835L49.3946 13.8335H51.3314L47.9457 23.1471C47.7575 23.677 47.4103 24.1411 46.9482 24.4806C46.4749 24.8245 45.8924 25 45.1934 25C45.0254 24.9988 44.8575 24.9871 44.691 24.9649C44.5106 24.9369 44.3328 24.8947 44.1595 24.8386L44.1668 23.119Z" fill="#335EEA"/>
<path d="M29.9615 8.10641C30.1581 8.34503 31.0318 9.85402 31.0318 9.85402L31.3449 9.75576L32.5317 8.94161L33.8641 9.79787V7.42561H35.0728L36.5144 8.20466V10.4576H37.9561V8.70298H39.354V6.85009H41.3053V11.0542H42.1135V10.2611L43.7299 8.79422H44.7857L46.3074 10.2611V10.9349C46.7807 10.9349 47.9093 10.9629 47.9093 10.9629C47.9093 10.9629 48.2296 10.9419 48.2296 11.1735C48.2284 11.3517 48.2381 11.5298 48.2587 11.7069C48.2587 11.7069 48.2806 12.107 48.6665 12.107H49.7514C49.7514 12.107 50.3047 12.0508 50.5814 11.9245C50.5814 11.9245 51.9065 11.4472 52.4381 11.4472C52.9696 11.4472 53.7414 11.8683 54.1709 12.4789C55.7728 14.7951 58.3794 16.4514 61.4738 16.4514C62.594 16.451 63.7031 16.2378 64.7378 15.8242C65.7724 15.4106 66.7125 14.8045 67.5042 14.0407C68.2959 13.2769 68.9238 12.3702 69.3521 11.3725C69.7803 10.3747 70.0004 9.30547 69.9999 8.22572C69.9854 3.67772 66.1701 -0.00700851 61.4593 1.00098e-05C60.1131 0.00117252 58.7862 0.308827 57.5868 0.897914C56.3873 1.487 55.3491 2.34086 54.5568 3.38996C54.5568 3.38996 53.6394 4.72348 52.7293 4.77261C51.8192 4.82174 50.7634 4.10585 50.3484 4.02864C49.9334 3.95144 49.1834 3.95144 48.9359 3.95144C48.6883 3.95144 48.3316 4.00759 48.3024 4.32342C48.2733 4.63925 48.3316 5.17968 47.9384 5.17968H31.6725C31.6725 5.17968 30.9007 5.15161 30.5658 5.65694C30.2309 6.16227 29.794 6.75183 29.7649 7.15189C29.7358 7.55194 29.7649 7.86777 29.9615 8.10641ZM62.6752 8.19765C62.6752 7.7937 62.7995 7.39882 63.0323 7.06295C63.2651 6.72709 63.596 6.46531 63.9832 6.31072C64.3703 6.15614 64.7963 6.11569 65.2074 6.1945C65.6184 6.27331 65.9959 6.46782 66.2922 6.75346C66.5885 7.03909 66.7903 7.40301 66.8721 7.7992C66.9538 8.19538 66.9119 8.60604 66.7515 8.97923C66.5911 9.35243 66.3196 9.67141 65.9711 9.89583C65.6227 10.1203 65.2131 10.24 64.794 10.24C64.5156 10.2404 64.24 10.1878 63.9827 10.0853C63.7255 9.98281 63.4918 9.83239 63.2949 9.64266C63.0981 9.45293 62.9421 9.22763 62.8357 8.97967C62.7294 8.73171 62.6748 8.46596 62.6752 8.19765Z" fill="#FAD776"/>
</svg>
