<svg width="20" height="21" viewBox="0 0 20 21" fill="none" xmlns="http://www.w3.org/2000/svg">
<path d="M10 20.13C4.47729 20.13 0 15.6529 0 10.13C0 4.60711 4.47729 0.130005 10 0.130005C15.5229 0.130005 20 4.60711 20 10.13C20 15.6529 15.5229 20.13 10 20.13Z" fill="url(#paint0_linear_852_29)"/>
<path d="M10 4.47272C6.88088 4.47272 4.34272 7.01069 4.34272 10.13C4.34272 13.2493 6.88088 15.7862 10 15.7862C13.1191 15.7862 15.6562 13.2493 15.6562 10.13C15.6562 7.01069 13.1191 4.47272 10 4.47272ZM14.859 9.73915H12.7311C12.6781 7.97466 12.2681 6.47894 11.6387 5.53752C13.4063 6.17067 14.7043 7.7963 14.859 9.73952V9.73915ZM10 15.0061C9.1171 15.0061 8.13859 13.1829 8.05043 10.5205H11.9498C11.8616 13.1829 10.8831 15.0061 10 15.0061ZM8.05043 9.73952C8.13859 7.07705 9.1171 5.25385 10 5.25385C10.8829 5.25385 11.8616 7.07705 11.9498 9.73952H8.05043ZM8.36151 5.5379C7.73191 6.47932 7.32186 7.97504 7.26893 9.73952H5.141C5.29588 7.7963 6.59385 6.17067 8.36151 5.5379ZM5.141 10.5205H7.26893C7.32186 12.285 7.73191 13.7807 8.36151 14.7221C6.59385 14.0901 5.29588 12.4637 5.141 10.5205ZM11.6387 14.7221C12.2681 13.7807 12.6781 12.285 12.7311 10.5205H14.859C14.7043 12.4637 13.4063 14.0901 11.6387 14.7221Z" fill="white"/>
<defs>
<linearGradient id="paint0_linear_852_29" x1="0" y1="10.13" x2="20" y2="10.13" gradientUnits="userSpaceOnUse">
<stop stop-color="#6271FF"/>
<stop offset="0.74" stop-color="#3786FF"/>
<stop offset="1" stop-color="#278EFF"/>
</linearGradient>
</defs>
</svg>
